other/AHB_PROTOCAL_RESULT EDA/dump.vcd
$date
Fri Jul 29 14:10:38 2022
$end
$version
Riviera-PRO Version 2022.04.117.8517
$end
$timescale
1 ns
$end

$scope module test $end
$var reg 1 ! pclk $end
$var reg 1 " rst_n $end
$var reg 32 # paddr [31:0] $end
$var reg 1 $ psel $end
$var reg 1 % penable $end
$var reg 1 & pwrite $end
$var reg 32 ' prdata [31:0] $end
$var reg 32 ( pwdata [31:0] $end

$scope module apb_if $end
$var reg 1 ) pclk $end
$var reg 1 * rst_n $end
$var reg 32 + paddr [31:0] $end
$var reg 1 , psel $end
$var reg 1 - penable $end
$var reg 1 . pwrite $end
$var reg 32 / pwdata [31:0] $end
$var reg 1 0 pready $end
$var reg 32 1 prdata [31:0] $end
$var reg 32 2 paddr [31:0] $end
$var reg 1 3 psel $end
$var reg 1 4 penable $end
$var reg 1 5 pwrite $end
$var reg 32 6 pwdata [31:0] $end
$var reg 32 7 prdata [31:0] $end
$var reg 32 8 paddr [31:0] $end
$var reg 1 9 psel $end
$var reg 1 : penable $end
$var reg 1 ; pwrite $end
$var reg 32 < pwdata [31:0] $end
$var reg 32 = prdata [31:0] $end
$var reg 32 > paddr [31:0] $end
$var reg 1 ? psel $end
$var reg 1 @ penable $end
$var reg 1 A pwrite $end
$var reg 32 B prdata [31:0] $end
$var reg 32 C pwdata [31:0] $end
$upscope $end


$scope module dut $end
$var reg 2 D SETUP [1:0] $end
$var reg 2 E W_ENABLE [1:0] $end
$var reg 2 F R_ENABLE [1:0] $end
$var reg 2 G apb_st [1:0] $end
$upscope $end

$upscope $end


$scope module uvm_pkg $end
$var integer 32 H UVM_UNBOUNDED_CONNECTIONS $end
$var reg 1 I uvm_start_uvm_declarations $end
$var integer 32 J uvm_global_random_seed $end
$var parameter 32 K UVM_HDL_MAX_WIDTH [31:0] $end
$var parameter 32 L UVM_STREAMBITS [31:0] $end
$var parameter 32 M UVM_RADIX [31:0] $end
$var parameter 32 N UVM_MACRO_NUMFLAGS [31:0] $end
$var parameter 32 O UVM_DEFAULT [31:0] $end
$var parameter 32 P UVM_ALL_ON [31:0] $end
$var parameter 32 Q UVM_FLAGS_ON [31:0] $end
$var parameter 32 R UVM_FLAGS_OFF [31:0] $end
$var parameter 32 S UVM_COPY [31:0] $end
$var parameter 32 T UVM_NOCOPY [31:0] $end
$var parameter 32 U UVM_COMPARE [31:0] $end
$var parameter 32 V UVM_NOCOMPARE [31:0] $end
$var parameter 32 W UVM_PRINT [31:0] $end
$var parameter 32 X UVM_NOPRINT [31:0] $end
$var parameter 32 Y UVM_RECORD [31:0] $end
$var parameter 32 Z UVM_NORECORD [31:0] $end
$var parameter 32 [ UVM_PACK [31:0] $end
$var parameter 32 \ UVM_NOPACK [31:0] $end
$var parameter 32 ] UVM_PHYSICAL [31:0] $end
$var parameter 32 ^ UVM_ABSTRACT [31:0] $end
$var parameter 32 _ UVM_READONLY [31:0] $end
$var parameter 32 ` UVM_NODEFPRINT [31:0] $end
$var parameter 32 a UVM_MACRO_EXTRAS [31:0] $end
$var parameter 32 b UVM_FLAGS [31:0] $end
$var parameter 32 c UVM_UNPACK [31:0] $end
$var parameter 32 d UVM_CHECK_FIELDS [31:0] $end
$var parameter 32 e UVM_END_DATA_EXTRA [31:0] $end
$var parameter 32 f UVM_START_FUNCS [31:0] $end
$var parameter 32 g UVM_SET [31:0] $end
$var parameter 32 h UVM_SETINT [31:0] $end
$var parameter 32 i UVM_SETOBJ [31:0] $end
$var parameter 32 j UVM_SETSTR [31:0] $end
$var parameter 32 k UVM_END_FUNCS [31:0] $end
$var parameter 32 l UVM_STR_CRC_POLYNOMIAL [31:0] $end
$var parameter 32 m UVM_STDOUT [31:0] $end
$var parameter 32 n UVM_LOG_UVM_RM_RECORD [31:0] $end
$var parameter 32 o UVM_LINE_WIDTH [31:0] $end
$var parameter 32 p UVM_NUM_LINES [31:0] $end
$var parameter 32 q UVM_SMALL_STRING [31:0] $end
$var parameter 32 r UVM_LARGE_STRING [31:0] $end

$scope function uvm_hdl_check_path $end
$var integer 32 s uvm_hdl_check_path $end
$upscope $end


$scope function uvm_hdl_deposit $end
$var reg 1024 t value [1023:0] $end
$var integer 32 u uvm_hdl_deposit $end
$upscope $end


$scope function uvm_hdl_force $end
$var reg 1024 v value [1023:0] $end
$var integer 32 w uvm_hdl_force $end
$upscope $end


$scope task uvm_hdl_force_time $end
$var reg 1024 x value [1023:0] $end
$var time 64 y force_time $end
$upscope $end


$scope function uvm_hdl_release_and_read $end
$var reg 1024 z value [1023:0] $end
$var integer 32 { uvm_hdl_release_and_read $end
$upscope $end


$scope function uvm_hdl_release $end
$var integer 32 | uvm_hdl_release $end
$upscope $end


$scope function uvm_hdl_read $end
$var reg 1024 } value [1023:0] $end
$var integer 32 ~ uvm_hdl_read $end
$upscope $end


$scope function uvm_dpi_get_next_arg_c $end
$var integer 32 !! init $end
$upscope $end


$scope function uvm_dpi_get_tool_name_c $end
$upscope $end


$scope function uvm_dpi_get_tool_version_c $end
$upscope $end


$scope function uvm_dpi_get_next_arg $end
$var integer 32 "! init $end
$upscope $end


$scope function uvm_dpi_get_tool_name $end
$upscope $end


$scope function uvm_dpi_get_tool_version $end
$upscope $end


$scope function uvm_dpi_regcomp $end
$upscope $end


$scope function uvm_dpi_regexec $end
$var integer 32 #! uvm_dpi_regexec $end
$upscope $end


$scope function uvm_dpi_regfree $end
$upscope $end


$scope function uvm_re_match $end
$var integer 32 $! uvm_re_match $end
$upscope $end


$scope function uvm_dump_re_cache $end
$upscope $end


$scope function uvm_glob_to_re $end
$upscope $end


$scope function uvm_revision_string $end
$upscope $end


$scope function uvm_radix_to_string $end
$var integer 32 %! radix $end
$upscope $end


$scope function uvm_instance_scope $end
$var reg 8 &! c [7:0] $end
$var integer 32 '! pos $end

$scope begin 1unnblk $end
$var integer 32 (! dot_pos $end
$var integer 32 )! slash_cnt $end
$var integer 32 *! slash_pos $end
$upscope $end

$upscope $end


$scope function uvm_oneway_hash $end
$var integer 32 +! seed $end
$var integer 32 ,! uvm_oneway_hash $end
$var reg 1 -! msb $end
$var reg 8 .! current_byte [7:0] $end
$var reg 32 /! crc1 [31:0] $end
$upscope $end


$scope function uvm_create_random_seed $end
$var integer 32 0! uvm_create_random_seed $end
$upscope $end


$scope function uvm_object_value_str $end
$upscope $end


$scope function uvm_leaf_scope $end
$var reg 8 1! scope_separator [7:0] $end
$var reg 8 2! bracket_match [7:0] $end
$var integer 32 3! pos $end
$var integer 32 4! bmatches $end
$upscope $end


$scope function get_radix_string_global $end
$var integer 32 5! radix $end
$upscope $end


$scope function uvm_bitstream_to_string $end
$var reg 4096 6! value [4095:0] $end
$var integer 32 7! size $end
$var integer 32 8! radix $end

$scope begin 24unnblk $end
$var reg 4096 9! _t [4095:0] $end
$upscope $end

$upscope $end


$scope function uvm_integral_to_string $end
$var reg 64 :! value [63:0] $end
$var integer 32 ;! size $end
$var integer 32 <! radix $end

$scope begin 26unnblk $end
$var reg 64 =! _t [63:0] $end
$upscope $end

$upscope $end


$scope function uvm_vector_to_string $end
$var reg 4096 >! value [4095:0] $end
$var integer 32 ?! size $end
$var integer 32 @! radix $end
$upscope $end


$scope function uvm_get_array_index_int $end
$var reg 1 A! is_wildcard $end
$var integer 32 B! uvm_get_array_index_int $end
$var integer 32 C! i $end
$upscope $end


$scope function uvm_get_array_index_string $end
$var reg 1 D! is_wildcard $end
$var integer 32 E! i $end
$upscope $end


$scope function uvm_is_array $end
$var reg 1 F! uvm_is_array $end
$upscope $end


$scope function uvm_has_wildcard $end
$upscope $end


$scope function m_uvm_string_queue_join $end
$upscope $end


$scope task run_test $end
$upscope $end


$scope function global_stop_request $end
$upscope $end


$scope function set_global_timeout $end
$var time 64 G! timeout $end
$var reg 1 H! overridable $end
$upscope $end


$scope function set_global_stop_timeout $end
$var time 64 I! timeout $end
$upscope $end


$scope function uvm_get_report_object $end
$upscope $end


$scope function uvm_report_enabled $end
$var integer 32 J! verbosity $end
$var reg 2 K! severity $end
$var integer 32 L! uvm_report_enabled $end
$upscope $end


$scope function uvm_report $end
$var reg 2 M! severity $end
$var integer 32 N! verbosity $end
$var integer 32 O! line $end
$var reg 1 P! report_enabled_checked $end
$upscope $end


$scope function m__uvm_report_dpi $end
$var integer 32 Q! severity $end
$var integer 32 R! verbosity $end
$var integer 32 S! line $end
$upscope $end


$scope function uvm_report_info $end
$var integer 32 T! verbosity $end
$var integer 32 U! line $end
$var reg 1 V! report_enabled_checked $end
$upscope $end


$scope function uvm_report_warning $end
$var integer 32 W! verbosity $end
$var integer 32 X! line $end
$var reg 1 Y! report_enabled_checked $end
$upscope $end


$scope function uvm_report_error $end
$var integer 32 Z! verbosity $end
$var integer 32 [! line $end
$var reg 1 \! report_enabled_checked $end
$upscope $end


$scope function uvm_report_fatal $end
$var integer 32 ]! verbosity $end
$var integer 32 ^! line $end
$var reg 1 _! report_enabled_checked $end
$upscope $end


$scope function uvm_process_report_message $end
$upscope $end


$scope function uvm_string_to_severity $end
$var reg 2 `! sev $end
$var reg 1 a! uvm_string_to_severity $end
$upscope $end


$scope function uvm_string_to_action $end
$upscope $end


$scope function set_config_int $end
$var reg 4096 b! value [4095:0] $end
$upscope $end


$scope function set_config_object $end
$var reg 1 c! clone $end
$upscope $end


$scope function set_config_string $end
$upscope $end


$scope function uvm_is_match $end
$var reg 1 d! uvm_is_match $end
$upscope $end


$scope function uvm_string_to_bits $end
$var reg 115200 e! uvm_string_to_bits [115199:0] $end
$upscope $end


$scope function uvm_bits_to_string $end
$var reg 115200 f! str [115199:0] $end
$upscope $end


$scope task uvm_wait_for_nba_region $end
$var integer 32 g! nba $end
$var integer 32 h! next_nba $end
$upscope $end


$scope function uvm_split_string $end
$upscope $end


$scope function uvm_hdl_concat2string $end
$upscope $end

$upscope $end


$scope module std $end

$scope function randomize $end
$var reg 1 i! randomize $end
$upscope $end

$upscope $end

$enddefinitions $end
$dumpvars
x!
x"
bx #
x$
x%
x&
bx '
bx (
0)
0*
bx +
x,
x-
x.
bx /
10
b0 1
bx 2
03
04
x5
bx 6
bx 7
bx 8
x9
x:
x;
bx <
bx =
bx >
x?
x@
xA
bx B
bx C
b0 D
b1 E
b10 F
b0 G
b11111111111111111111111111111111 H
1I
b1000011111110111011111100011111 J
b10000000000 K
b1000000000000 L
b1111000000000000000000000000 M
b10001 N
b10101010101 O
b101010101 P
b101010101 Q
b0 R
b1 S
b10 T
b100 U
b1000 V
b10000 W
b100000 X
b1000000 Y
b10000000 Z
b100000000 [
b1000000000 \
b10000000000000 ]
b100000000000000 ^
b1000000000000000 _
b10000000000000000 `
b100000000000000000 a
b100000000000000001 b
b100000000000000010 c
b100000000000000011 d
b100000000000000100 e
b100000000000000101 f
b100000000000000110 g
b100000000000000110 h
b100000000000000111 i
b100000000000001000 j
b100000000000001000 k
b100110000010001110110110110 l
b1 m
b1000010 n
b1111000 o
b1111000 p
b1110111111 q
b11100000111111111 r
b0 s
bx t
b0 u
bx v
b0 w
bx x
bx y
bx z
b0 {
b0 |
bx }
b0 ~
b0 !!
b0 "!
b0 #!
b1 $!
b0 %!
b101110 &!
b11011 '!
b10001 (!
b11 )!
b11001 *!
b1000011111110111011111100011111 +!
b10001010000101001000000100001001 ,!
1-!
b1101110 .!
b10101001111101110011110111001 /!
b10011001101011010011000011000 0!
b0 1!
b0 2!
b0 3!
b0 4!
b0 5!
bx 6!
b0 7!
b0 8!
bx 9!
bx :!
b0 ;!
b0 <!
bx =!
bx >!
b0 ?!
b0 @!
0A!
b0 B!
b0 C!
0D!
b0 E!
0F!
bx G!
0H!
bx I!
b111110100 J!
b0 K!
b0 L!
b0 M!
b0 N!
b0 O!
0P!
b0 Q!
b0 R!
b0 S!
b0 T!
b0 U!
0V!
b0 W!
b0 X!
0Y!
b0 Z!
b0 [!
0\!
b0 ]!
b0 ^!
0_!
b0 `!
0a!
bx b!
0c!
0d!
bx e!
bx f!
b100011 g!
b100011 h!
0i!
$end
#10
1)
1*
b0 B
b0 7
b100100 h!
b100100 g!
0-
0,
#20
0)
#30
1)
0@
0?
0:
09
b11000110 2
05
13
0.
1,
b11000110 +
#40
0)
#50
1)
b10 G
b11000110 1
0A
1?
b11000110 >
0;
19
b11000110 8
14
1-
#60
0)
#70
1)
b0 G
b11000110 B
1@
1:
b11000110 7
b10001010000101001000000100001010 0!
03
04
0-
0,
#80
0)
#90
1)
b0 1
0@
0?
0:
09
b100101 h!
b100101 g!
#100
0)
#110
1)
b0 B
b0 7
b11111101 2
b110010 6
15
13
b110010 /
1.
1,
b11111101 +
#120
0)
#130
1)
b1 G
b110010 C
1A
1?
b11111101 >
b110010 <
1;
19
b11111101 8
14
1-
#140
0)
#150
1)
b0 G
1@
1:
b10001010000101001000000100001100 0!
03
04
0-
0,
#160
0)
#170
1)
0@
0?
0:
09
b100110 h!
b100110 g!
#180
0)
#190
1)
b1101010 2
b10011011 6
13
b10011011 /
1,
b1101010 +
#200
0)
#210
1)
b1 G
b10011011 C
1?
b1101010 >
b10011011 <
19
b1101010 8
14
1-
#220
0)
#230
1)
b0 G
1@
1:
b10001010000101001000000100001111 0!
03
04
0-
0,
#240
0)
#250
1)
0@
0?
0:
09
b100111 h!
b100111 g!
#260
0)
#270
1)
b1101 2
05
13
0.
1,
b1101 +
#280
0)
#290
1)
b10 G
b1101 1
0A
1?
b1101 >
0;
19
b1101 8
14
1-
#300
0)
#310
1)
b0 G
b1101 B
1@
1:
b1101 7
b10001010000101001000000100010011 0!
03
04
0-
0,
#320
0)
#330
1)
b0 1
0@
0?
0:
09
b101000 h!
b101000 g!
#340
0)
#350
1)
b0 B
b0 7
b11100111 2
13
1,
b11100111 +
#360
0)
#370
1)
b10 G
b11100111 1
1?
b11100111 >
19
b11100111 8
14
1-
#380
0)
#390
1)
b0 G
b11100111 B
1@
1:
b11100111 7
b10001010000101001000000100011000 0!
03
04
0-
0,
#400
0)
#410
1)
b0 1
0@
0?
0:
09
b101001 h!
b101001 g!
#420
0)
#430
1)
b0 B
b0 7
b11111000 2
b10001 6
15
13
b10001 /
1.
1,
b11111000 +
#440
0)
#450
1)
b1 G
b10001 C
1A
1?
b11111000 >
b10001 <
1;
19
b11111000 8
14
1-
#460
0)
#470
1)
b0 G
1@
1:
b10001010000101001000000100011110 0!
03
04
0-
0,
#480
0)
#490
1)
0@
0?
0:
09
b101010 h!
b101010 g!
#500
0)
#510
1)
b111111 2
b1001100 6
13
b1001100 /
1,
b111111 +
#520
0)
#530
1)
b1 G
b1001100 C
1?
b111111 >
b1001100 <
19
b111111 8
14
1-
#540
0)
#550
1)
b0 G
1@
1:
b10001010000101001000000100100101 0!
03
04
0-
0,
#560
0)
#570
1)
0@
0?
0:
09
b101011 h!
b101011 g!
#580
0)
#590
1)
b10111100 2
05
13
0.
1,
b10111100 +
#600
0)
#610
1)
b10 G
b10111100 1
0A
1?
b10111100 >
0;
19
b10111100 8
14
1-
#620
0)
#630
1)
b0 G
b10111100 B
1@
1:
b10111100 7
b10001010000101001000000100101101 0!
03
04
0-
0,
#640
0)
#650
1)
b0 1
0@
0?
0:
09
b101100 h!
b101100 g!
#660
0)
#670
1)
b0 B
b0 7
b1110000 2
13
1,
b1110000 +
#680
0)
#690
1)
b10 G
b1110000 1
1?
b1110000 >
19
b1110000 8
14
1-
#700
0)
#710
1)
b0 G
b1110000 B
1@
1:
b1110000 7
b10001010000101001000000100110110 0!
03
04
0-
0,
#720
0)
#730
1)
b0 1
0@
0?
0:
09
b101101 h!
b101101 g!
#740
0)
#750
1)
b0 B
b0 7
b1011011 2
b111000 6
15
13
b111000 /
1.
1,
b1011011 +
#760
0)
#770
1)
b1 G
b111000 C
1A
1?
b1011011 >
b111000 <
1;
19
b1011011 8
14
1-
#780
0)
#790
1)
b0 G
1@
1:
b10001010000101001000000101000000 0!
03
04
0-
0,
#800
0)
#810
1)
0@
0?
0:
09
b101110 h!
b101110 g!
#820
0)
#830
1)
b1111100 2
b1000101 6
13
b1000101 /
1,
b1111100 +
#840
0)
#850
1)
b1 G
b1000101 C
1?
b1111100 >
b1000101 <
19
b1111100 8
14
1-
#860
0)
#870
1)
b0 G
1@
1:
b10001010000101001000000101001011 0!
03
04
0-
0,
#880
0)
#890
1)
0@
0?
0:
09
b101111 h!
b101111 g!
#900
0)
#910
1)
b11010011 2
05
13
0.
1,
b11010011 +
#920
0)
#930
1)
b10 G
b11010011 1
0A
1?
b11010011 >
0;
19
b11010011 8
14
1-
#940
0)
#950
1)
b0 G
b11010011 B
1@
1:
b11010011 7
b10001010000101001000000101010111 0!
03
04
0-
0,
#960
0)
#970
1)
b0 1
0@
0?
0:
09
b110000 h!
b110000 g!
#980
0)
#990
1)
b0 B
b0 7
b1100001 2
13
1,
b1100001 +
#1000
0)
#1010
1)
b10 G
b1100001 1
1?
b1100001 >
19
b1100001 8
14
1-
#1020
0)
#1030
1)
b0 G
b1100001 B
1@
1:
b1100001 7
b10001010000101001000000101100100 0!
03
04
0-
0,
#1040
0)
#1050
1)
b0 1
0@
0?
0:
09
b110001 h!
b110001 g!
#1060
0)
#1070
1)
b0 B
b0 7
b100110 2
b10100111 6
15
13
b10100111 /
1.
1,
b100110 +
#1080
0)
#1090
1)
b1 G
b10100111 C
1A
1?
b100110 >
b10100111 <
1;
19
b100110 8
14
1-
#1100
0)
#1110
1)
b0 G
1@
1:
b10001010000101001000000101110010 0!
03
04
0-
0,
#1120
0)
#1130
1)
0@
0?
0:
09
b110010 h!
b110010 g!
#1140
0)
#1150
1)
b100001 2
b10000110 6
13
b10000110 /
1,
b100001 +
#1160
0)
#1170
1)
b1 G
b10000110 C
1?
b100001 >
b10000110 <
19
b100001 8
14
1-
#1180
0)
#1190
1)
b0 G
1@
1:
b10001010000101001000000110000001 0!
03
04
0-
0,
#1200
0)
#1210
1)
0@
0?
0:
09
b110011 h!
b110011 g!
#1220
0)
#1230
1)
b1010010 2
05
13
0.
1,
b1010010 +
#1240
0)
#1250
1)
b10 G
b1010010 1
0A
1?
b1010010 >
0;
19
b1010010 8
14
1-
#1260
0)
#1270
1)
b0 G
b1010010 B
1@
1:
b1010010 7
b10001010000101001000000110010001 0!
03
04
0-
0,
#1280
0)
#1290
1)
b0 1
0@
0?
0:
09
b110100 h!
b110100 g!
#1300
0)
#1310
1)
b0 B
b0 7
b10111010 2
13
1,
b10111010 +
#1320
0)
#1330
1)
b10 G
b10111010 1
1?
b10111010 >
19
b10111010 8
14
1-
#1340
0)
#1350
1)
b0 G
b10111010 B
1@
1:
b10111010 7
b10001010000101001000000110100010 0!
03
04
0-
0,
#1360
0)
#1370
1)
b0 1
0@
0?
0:
09
b110101 h!
b110101 g!
#1380
0)
#1390
1)
b0 B
b0 7
b1011001 2
b1011110 6
15
13
b1011110 /
1.
1,
b1011001 +
#1400
0)
#1410
1)
b1 G
b1011110 C
1A
1?
b1011001 >
b1011110 <
1;
19
b1011001 8
14
1-
#1420
0)
#1430
1)
b0 G
1@
1:
b10001010000101001000000110110100 0!
03
04
0-
0,
#1440
0)
#1450
1)
0@
0?
0:
09
b110110 h!
b110110 g!
#1460
0)
#1470
1)
b101110 2
b1111 6
13
b1111 /
1,
b101110 +
#1480
0)
#1490
1)
b1 G
b1111 C
1?
b101110 >
b1111 <
19
b101110 8
14
1-
#1500
0)
#1510
1)
b0 G
1@
1:
b10001010000101001000000111000111 0!
03
04
0-
0,
#1520
0)
#1530
1)
0@
0?
0:
09
b110111 h!
b110111 g!
#1540
0)
#1550
1)
b111001 2
05
13
0.
1,
b111001 +
#1560
0)
#1570
1)
b10 G
b111001 1
0A
1?
b111001 >
0;
19
b111001 8
14
1-
#1580
0)
#1590
1)
b0 G
b111001 B
1@
1:
b111001 7
b10001010000101001000000111011011 0!
03
04
0-
0,
#1600
0)
#1610
1)
b0 1
0@
0?
0:
09
b111000 h!
b111000 g!
#1620
0)
#1630
1)
b0 B
b0 7
b1111011 2
13
1,
b1111011 +
#1640
0)
#1650
1)
b10 G
b1111011 1
1?
b1111011 >
19
b1111011 8
14
1-
#1660
0)
#1670
1)
b0 G
b1111011 B
1@
1:
b1111011 7
b10001010000101001000000111110000 0!
03
04
0-
0,
#1680
0)
#1690
1)
b0 1
0@
0?
0:
09
b111001 h!
b111001 g!
#1700
0)
#1710
1)
b0 B
b0 7
b11110100 2
b1011101 6
15
13
b1011101 /
1.
1,
b11110100 +
#1720
0)
#1730
1)
b1 G
b1011101 C
1A
1?
b11110100 >
b1011101 <
1;
19
b11110100 8
14
1-
#1740
0)
#1750
1)
b0 G
1@
1:
b10001010000101001000001000000110 0!
03
04
0-
0,
#1760
0)
#1770
1)
0@
0?
0:
09
b111010 h!
b111010 g!
#1780
0)
#1790
1)
b10100011 2
b11100000 6
13
b11100000 /
1,
b10100011 +
#1800
0)
#1810
1)
b1 G
b11100000 C
1?
b10100011 >
b11100000 <
19
b10100011 8
14
1-
#1820
0)
#1830
1)
b0 G
1@
1:
b10001010000101001000001000011101 0!
03
04
0-
0,
#1840
0)
#1850
1)
0@
0?
0:
09
b111011 h!
b111011 g!
#1860
0)
#1870
1)
b10001000 2
05
13
0.
1,
b10001000 +
#1880
0)
#1890
1)
b10 G
b10001000 1
0A
1?
b10001000 >
0;
19
b10001000 8
14
1-
#1900
0)
#1910
1)
b0 G
b10001000 B
1@
1:
b10001000 7
b10001010000101001000001000110101 0!
03
04
0-
0,
#1920
0)
#1930
1)
b0 1
0@
0?
0:
09
b111100 h!
b111100 g!
#1940
0)
#1950
1)
b0 B
b0 7
b10100100 2
13
1,
b10100100 +
#1960
0)
#1970
1)
b10 G
b10100100 1
1?
b10100100 >
19
b10100100 8
14
1-
#1980
0)
#1990
1)
b0 G
b10100100 B
1@
1:
b10100100 7
b10001010000101001000001001001110 0!
03
04
0-
0,
#2000
0)
#2010
1)
b0 1
0@
0?
0:
09
b111101 h!
b111101 g!
#2020
0)
#2030
1)
b0 B
b0 7
b11110111 2
b10100100 6
15
13
b10100100 /
1.
1,
b11110111 +
#2040
0)
#2050
1)
b1 G
b10100100 C
1A
1?
b11110111 >
b10100100 <
1;
19
b11110111 8
14
1-
#2060
0)
#2070
1)
b0 G
1@
1:
b10001010000101001000001001101000 0!
03
04
0-
0,
#2080
0)
#2090
1)
0@
0?
0:
09
b111110 h!
b111110 g!
#2100
0)
#2110
1)
b10000000 2
b11111001 6
13
b11111001 /
1,
b10000000 +
#2120
0)
#2130
1)
b1 G
b11111001 C
1?
b10000000 >
b11111001 <
19
b10000000 8
14
1-
#2140
0)
#2150
1)
b0 G
1@
1:
b10001010000101001000001010000011 0!
03
04
0-
0,
#2160
0)
#2170
1)
0@
0?
0:
09
b111111 h!
b111111 g!
#2180
0)
#2190
1)
b111111 2
05
13
0.
1,
b111111 +
#2200
0)
#2210
1)
b10 G
b1001100 1
0A
1?
b111111 >
0;
19
b111111 8
14
1-
#2220
0)
#2230
1)
b0 G
b1001100 B
1@
1:
b1001100 7
b10001010000101001000001010011111 0!
03
04
0-
0,
#2240
0)
#2250
1)
b0 1
0@
0?
0:
09
b1000000 h!
b1000000 g!
#2260
0)
#2270
1)
b0 B
b0 7
b110101 2
13
1,
b110101 +
#2280
0)
#2290
1)
b10 G
b110101 1
1?
b110101 >
19
b110101 8
14
1-
#2300
0)
#2310
1)
b0 G
b110101 B
1@
1:
b110101 7
b10001010000101001000001010111100 0!
03
04
0-
0,
#2320
0)
#2330
1)
b0 1
0@
0?
0:
09
b1000001 h!
b1000001 g!
#2340
0)
#2350
1)
b0 B
b0 7
b1100010 2
b110011 6
15
13
b110011 /
1.
1,
b1100010 +
#2360
0)
#2370
1)
b1 G
b110011 C
1A
1?
b1100010 >
b110011 <
1;
19
b1100010 8
14
1-
#2380
0)
#2390
1)
b0 G
1@
1:
b10001010000101001000001011011010 0!
03
04
0-
0,
#2400
0)
#2410
1)
0@
0?
0:
09
b1000010 h!
b1000010 g!
#2420
0)
#2430
1)
b11000101 2
b1011010 6
13
b1011010 /
1,
b11000101 +
#2440
0)
#2450
1)
b1 G
b1011010 C
1?
b11000101 >
b1011010 <
19
b11000101 8
14
1-
#2460
0)
#2470
1)
b0 G
1@
1:
b10001010000101001000001011111001 0!
03
04
0-
0,
#2480
0)
#2490
1)
0@
0?
0:
09
b1000011 h!
b1000011 g!
#2500
0)
#2510
1)
b1011110 2
05
13
0.
1,
b1011110 +
#2520
0)
#2530
1)
b10 G
b1011110 1
0A
1?
b1011110 >
0;
19
b1011110 8
14
1-
#2540
0)
#2550
1)
b0 G
b1011110 B
1@
1:
b1011110 7
b10001010000101001000001100011001 0!
03
04
0-
0,
#2560
0)
#2570
1)
b0 1
0@
0?
0:
09
b1000100 h!
b1000100 g!
#2580
0)
#2590
1)
b0 B
b0 7
b101110 2
13
1,
b101110 +
#2600
0)
#2610
1)
b10 G
b1111 1
1?
b101110 >
19
b101110 8
14
1-
#2620
0)
#2630
1)
b0 G
b1111 B
1@
1:
b1111 7
b10001010000101001000001100111010 0!
03
04
0-
0,
#2640
0)
#2650
1)
b0 1
0@
0?
0:
09
b1000101 h!
b1000101 g!
#2660
0)
#2670
1)
b0 B
b0 7
b110101 2
b1010 6
15
13
b1010 /
1.
1,
b110101 +
#2680
0)
#2690
1)
b1 G
b1010 C
1A
1?
b110101 >
b1010 <
1;
19
b110101 8
14
1-
#2700
0)
#2710
1)
b0 G
1@
1:
b10001010000101001000001101011100 0!
03
04
0-
0,
#2720
0)
#2730
1)
0@
0?
0:
09
b1000110 h!
b1000110 g!
#2740
0)
#2750
1)
b1110010 2
b11 6
13
b11 /
1,
b1110010 +
#2760
0)
#2770
1)
b1 G
b11 C
1?
b1110010 >
b11 <
19
b1110010 8
14
1-
#2780
0)
#2790
1)
b0 G
1@
1:
b10001010000101001000001101111111 0!
03
04
0-
0,
#2800
0)
#2810
1)
0@
0?
0:
09
b1000111 h!
b1000111 g!
#2820
0)
#2830
1)
b11100101 2
05
13
0.
1,
b11100101 +
#2840
0)
#2850
1)
b10 G
b11100101 1
0A
1?
b11100101 >
0;
19
b11100101 8
14
1-
#2860
0)
#2870
1)
b0 G
b11100101 B
1@
1:
b11100101 7
b10001010000101001000001110100011 0!
03
04
0-
0,
#2880
0)
#2890
1)
b0 1
0@
0?
0:
09
b1001000 h!
b1001000 g!
#2900
0)
#2910
1)
b0 B
b0 7
b10001111 2
13
1,
b10001111 +
#2920
0)
#2930
1)
b10 G
b10001111 1
1?
b10001111 >
19
b10001111 8
14
1-
#2940
0)
#2950
1)
b0 G
b10001111 B
1@
1:
b10001111 7
b10001010000101001000001111001000 0!
03
04
0-
0,
#2960
0)
#2970
1)
b0 1
0@
0?
0:
09
b1001001 h!
b1001001 g!
#2980
0)
#2990
1)
b0 B
b0 7
b1110000 2
b101001 6
15
13
b101001 /
1.
1,
b1110000 +
#3000
0)
#3010
1)
b1 G
b101001 C
1A
1?
b1110000 >
b101001 <
1;
19
b1110000 8
14
1-
#3020
0)
#3030
1)
b0 G
1@
1:
b10001010000101001000001111101110 0!
03
04
0-
0,
#3040
0)
#3050
1)
0@
0?
0:
09
b1001010 h!
b1001010 g!
#3060
0)
#3070
1)
b10000111 2
b11110100 6
13
b11110100 /
1,
b10000111 +
#3080
0)
#3090
1)
b1 G
b11110100 C
1?
b10000111 >
b11110100 <
19
b10000111 8
14
1-
#3100
0)
#3110
1)
b0 G
1@
1:
b10001010000101001000010000010101 0!
03
04
0-
0,
#3120
0)
#3130
1)
0@
0?
0:
09
b1001011 h!
b1001011 g!
#3140
0)
#3150
1)
b11010100 2
05
13
0.
1,
b11010100 +
#3160
0)
#3170
1)
b10 G
b11010100 1
0A
1?
b11010100 >
0;
19
b11010100 8
14
1-
#3180
0)
#3190
1)
b0 G
b11010100 B
1@
1:
b11010100 7
b10001010000101001000010000111101 0!
03
04
0-
0,
#3200
0)
#3210
1)
b0 1
0@
0?
0:
09
b1001100 h!
b1001100 g!
#3220
0)
#3230
1)
b0 B
b0 7
b1011000 2
13
1,
b1011000 +
#3240
0)
#3250
1)
b10 G
b1011000 1
1?
b1011000 >
19
b1011000 8
14
1-
#3260
0)
#3270
1)
b0 G
b1011000 B
1@
1:
b1011000 7
b10001010000101001000010001100110 0!
03
04
0-
0,
#3280
0)
#3290
1)
b0 1
0@
0?
0:
09
b1001101 h!
b1001101 g!
#3300
0)
#3310
1)
b0 B
b0 7
b10011 2
b10010000 6
15
13
b10010000 /
1.
1,
b10011 +
#3320
0)
#3330
1)
b1 G
b10010000 C
1A
1?
b10011 >
b10010000 <
1;
19
b10011 8
14
1-
#3340
0)
#3350
1)
b0 G
1@
1:
b10001010000101001000010010010000 0!
03
04
0-
0,
#3360
0)
#3370
1)
0@
0?
0:
09
b1001110 h!
b1001110 g!
#3380
0)
#3390
1)
b100 2
b101101 6
13
b101101 /
1,
b100 +
#3400
0)
#3410
1)
b1 G
b101101 C
1?
b100 >
b101101 <
19
b100 8
14
1-
#3420
0)
#3430
1)
b0 G
1@
1:
b10001010000101001000010010111011 0!
03
04
0-
0,
#3440
0)
#3450
1)
0@
0?
0:
09
b1001111 h!
b1001111 g!
#3460
0)
#3470
1)
b101011 2
05
13
0.
1,
b101011 +
#3480
0)
#3490
1)
b10 G
b101011 1
0A
1?
b101011 >
0;
19
b101011 8
14
1-
#3500
0)
#3510
1)
b0 G
b101011 B
1@
1:
b101011 7
b10001010000101001000010011100111 0!
03
04
0-
0,
#3520
0)
#3530
1)
b0 1
0@
0?
0:
09
b1010000 h!
b1010000 g!
#3540
0)
#3550
1)
b0 B
b0 7
b10001001 2
13
1,
b10001001 +
#3560
0)
#3570
1)
b10 G
b10001001 1
1?
b10001001 >
19
b10001001 8
14
1-
#3580
0)
